{
    "$schema": "https://shadcn-svelte.com/schema.json",
    "style": "new-york",
    "tailwind": {
        "config": "tailwind.config.js",
        "css": "src/app.css",
        "baseColor": "neutral"
    },
    "aliases": {
        "components": "$lib/components",
        "utils": "$lib/utils"
    }
}
